{
  "_embedded" : {
    "wf:workflowExecution" : [ {
      "workflowId" : "8e7f3c59-64bf-4553-850e-3787f2c4961e",
      "status" : "COMPLETED",
      "statusMessage" : null,
      "workflowType" : "npo_webonly_drm",
      "customerMetadata" : {
        "mid" : "VPWON_1267474"
      },
      "startTime" : "2018-02-08T12:43:59Z",
      "updateTime" : "2018-02-08T12:45:39Z",
      "endTime" : "2018-02-08T12:45:39Z",
      "_links" : {
        "self" : {
          "href" : "http://npo-gatekeeper-acc.cdn1.usvc.nepworldwide.nl/api/workflows/8e7f3c59-64bf-4553-850e-3787f2c4961e"
        }
      }
    }, {
      "workflowId" : "b337aa4e-bb95-401a-93e7-b9aea6ac327c",
      "status" : "FAILED",
      "statusMessage" : "Packaging failed.",
      "workflowType" : "npo_webonly_drm",
      "customerMetadata" : {
        "mid" : "VPWON_1267474"
      },
      "startTime" : "2018-02-08T12:43:57Z",
      "updateTime" : "2018-02-08T12:45:27Z",
      "endTime" : "2018-02-08T12:45:27Z",
      "_links" : {
        "self" : {
          "href" : "http://npo-gatekeeper-acc.cdn1.usvc.nepworldwide.nl/api/workflows/b337aa4e-bb95-401a-93e7-b9aea6ac327c"
        }
      }
    }, {
      "workflowId" : "a817b26c-d967-4efa-9c86-cad4eca28f79",
      "status" : "FAILED",
      "statusMessage" : "Packaging failed.",
      "workflowType" : "npo_webonly_drm",
      "customerMetadata" : {
        "mid" : "VPWON_1267474"
      },
      "startTime" : "2018-02-08T12:43:56Z",
      "updateTime" : "2018-02-08T12:45:10Z",
      "endTime" : "2018-02-08T12:45:10Z",
      "_links" : {
        "self" : {
          "href" : "http://npo-gatekeeper-acc.cdn1.usvc.nepworldwide.nl/api/workflows/a817b26c-d967-4efa-9c86-cad4eca28f79"
        }
      }
    }, {
      "workflowId" : "cdba86c8-44a6-4ac4-890c-c919a7dea643",
      "status" : "FAILED",
      "statusMessage" : "Packaging failed.",
      "workflowType" : "npo_webonly_drm",
      "customerMetadata" : {
        "mid" : "VPWON_1267474"
      },
      "startTime" : "2018-02-08T12:43:54Z",
      "updateTime" : "2018-02-08T12:45:21Z",
      "endTime" : "2018-02-08T12:45:21Z",
      "_links" : {
        "self" : {
          "href" : "http://npo-gatekeeper-acc.cdn1.usvc.nepworldwide.nl/api/workflows/cdba86c8-44a6-4ac4-890c-c919a7dea643"
        }
      }
    }, {
      "workflowId" : "006021d4-5d29-400c-af57-88a4b469d8b2",
      "status" : "FAILED",
      "statusMessage" : "Packaging failed.",
      "workflowType" : "npo_webonly_drm",
      "customerMetadata" : {
        "mid" : "VPWON_1267474"
      },
      "startTime" : "2018-02-08T12:43:53Z",
      "updateTime" : "2018-02-08T12:45:01Z",
      "endTime" : "2018-02-08T12:45:01Z",
      "_links" : {
        "self" : {
          "href" : "http://npo-gatekeeper-acc.cdn1.usvc.nepworldwide.nl/api/workflows/006021d4-5d29-400c-af57-88a4b469d8b2"
        }
      }
    }, {
      "workflowId" : "6bd90e59-55b1-442b-94ad-305a37207779",
      "status" : "FAILED",
      "statusMessage" : "Packaging failed.",
      "workflowType" : "npo_webonly_drm",
      "customerMetadata" : {
        "mid" : "VPWON_1267474"
      },
      "startTime" : "2018-02-08T12:43:51Z",
      "updateTime" : "2018-02-08T12:44:37Z",
      "endTime" : "2018-02-08T12:44:37Z",
      "_links" : {
        "self" : {
          "href" : "http://npo-gatekeeper-acc.cdn1.usvc.nepworldwide.nl/api/workflows/6bd90e59-55b1-442b-94ad-305a37207779"
        }
      }
    }, {
      "workflowId" : "bc35b0b0-ef78-46d9-ba2b-04ef3f922a4d",
      "status" : "FAILED",
      "statusMessage" : "Packaging failed.",
      "workflowType" : "npo_webonly_drm",
      "customerMetadata" : {
        "mid" : "VPWON_1267474"
      },
      "startTime" : "2018-02-08T12:43:50Z",
      "updateTime" : "2018-02-08T12:44:31Z",
      "endTime" : "2018-02-08T12:44:31Z",
      "_links" : {
        "self" : {
          "href" : "http://npo-gatekeeper-acc.cdn1.usvc.nepworldwide.nl/api/workflows/bc35b0b0-ef78-46d9-ba2b-04ef3f922a4d"
        }
      }
    }, {
      "workflowId" : "a0679e7b-71da-4c98-adda-b2753f6cc622",
      "status" : "FAILED",
      "statusMessage" : "Packaging failed.",
      "workflowType" : "npo_webonly_drm",
      "customerMetadata" : {
        "mid" : "VPWON_1267474"
      },
      "startTime" : "2018-02-08T12:43:48Z",
      "updateTime" : "2018-02-08T12:44:19Z",
      "endTime" : "2018-02-08T12:44:19Z",
      "_links" : {
        "self" : {
          "href" : "http://npo-gatekeeper-acc.cdn1.usvc.nepworldwide.nl/api/workflows/a0679e7b-71da-4c98-adda-b2753f6cc622"
        }
      }
    }, {
      "workflowId" : "df9217a6-eca9-4008-bfd5-7252af0098bd",
      "status" : "FAILED",
      "statusMessage" : "Packaging failed.",
      "workflowType" : "npo_webonly_drm",
      "customerMetadata" : {
        "mid" : "VPWON_1267474"
      },
      "startTime" : "2018-02-08T12:43:45Z",
      "updateTime" : "2018-02-08T12:44:16Z",
      "endTime" : "2018-02-08T12:44:16Z",
      "_links" : {
        "self" : {
          "href" : "http://npo-gatekeeper-acc.cdn1.usvc.nepworldwide.nl/api/workflows/df9217a6-eca9-4008-bfd5-7252af0098bd"
        }
      }
    }, {
      "workflowId" : "ee9a6bd9-a79f-48c2-922b-ae1b01b1520d",
      "status" : "COMPLETED",
      "statusMessage" : null,
      "workflowType" : "npo_webonly_drm",
      "customerMetadata" : {
        "mid" : "POW_03492090"
      },
      "startTime" : "2018-02-08T12:12:25Z",
      "updateTime" : "2018-02-08T12:12:57Z",
      "endTime" : "2018-02-08T12:12:57Z",
      "_links" : {
        "self" : {
          "href" : "http://npo-gatekeeper-acc.cdn1.usvc.nepworldwide.nl/api/workflows/ee9a6bd9-a79f-48c2-922b-ae1b01b1520d"
        }
      }
    }, {
      "workflowId" : "87153a2b-cbb8-4146-9485-741896748e58",
      "status" : "COMPLETED",
      "statusMessage" : null,
      "workflowType" : "npo_webonly_drm",
      "customerMetadata" : {
        "mid" : "POW_03427594"
      },
      "startTime" : "2018-02-08T12:10:15Z",
      "updateTime" : "2018-02-08T12:11:12Z",
      "endTime" : "2018-02-08T12:11:12Z",
      "_links" : {
        "self" : {
          "href" : "http://npo-gatekeeper-acc.cdn1.usvc.nepworldwide.nl/api/workflows/87153a2b-cbb8-4146-9485-741896748e58"
        }
      }
    }, {
      "workflowId" : "8e3322ee-566a-4599-8557-cefbdba6cbe0",
      "status" : "FAILED",
      "statusMessage" : "Packaging failed.",
      "workflowType" : "npo_webonly_drm",
      "customerMetadata" : {
        "mid" : "POW_03427594"
      },
      "startTime" : "2018-02-08T12:10:13Z",
      "updateTime" : "2018-02-08T12:10:54Z",
      "endTime" : "2018-02-08T12:10:54Z",
      "_links" : {
        "self" : {
          "href" : "http://npo-gatekeeper-acc.cdn1.usvc.nepworldwide.nl/api/workflows/8e3322ee-566a-4599-8557-cefbdba6cbe0"
        }
      }
    }, {
      "workflowId" : "d6e1f825-bf13-408e-a5eb-00806f043747",
      "status" : "FAILED",
      "statusMessage" : null,
      "workflowType" : "npo_webonly_drm",
      "customerMetadata" : {
        "mid" : "POW_03427594"
      },
      "startTime" : "2018-02-08T12:10:10Z",
      "updateTime" : "2018-02-08T12:12:57Z",
      "endTime" : "2018-02-08T12:12:57Z",
      "_links" : {
        "self" : {
          "href" : "http://npo-gatekeeper-acc.cdn1.usvc.nepworldwide.nl/api/workflows/d6e1f825-bf13-408e-a5eb-00806f043747"
        }
      }
    }, {
      "workflowId" : "e01e1b37-55ad-41c0-b48c-4321a0e2d0b6",
      "status" : "FAILED",
      "statusMessage" : "Packaging failed.",
      "workflowType" : "npo_webonly_drm",
      "customerMetadata" : {
        "mid" : "POW_03427594"
      },
      "startTime" : "2018-02-08T12:09:59Z",
      "updateTime" : "2018-02-08T12:10:41Z",
      "endTime" : "2018-02-08T12:10:41Z",
      "_links" : {
        "self" : {
          "href" : "http://npo-gatekeeper-acc.cdn1.usvc.nepworldwide.nl/api/workflows/e01e1b37-55ad-41c0-b48c-4321a0e2d0b6"
        }
      }
    }, {
      "workflowId" : "e8e51d2a-5138-430f-b0db-a3dd0b7da409",
      "status" : "FAILED",
      "statusMessage" : "Packaging failed.",
      "workflowType" : "npo_webonly_drm",
      "customerMetadata" : {
        "mid" : "POW_03427594"
      },
      "startTime" : "2018-02-08T12:09:41Z",
      "updateTime" : "2018-02-08T12:10:29Z",
      "endTime" : "2018-02-08T12:10:29Z",
      "_links" : {
        "self" : {
          "href" : "http://npo-gatekeeper-acc.cdn1.usvc.nepworldwide.nl/api/workflows/e8e51d2a-5138-430f-b0db-a3dd0b7da409"
        }
      }
    }, {
      "workflowId" : "ddec24b7-e5b7-487a-92db-d9500e35d26f",
      "status" : "FAILED",
      "statusMessage" : "Packaging failed.",
      "workflowType" : "npo_webonly_drm",
      "customerMetadata" : {
        "mid" : "POW_03427594"
      },
      "startTime" : "2018-02-08T12:09:39Z",
      "updateTime" : "2018-02-08T12:10:21Z",
      "endTime" : "2018-02-08T12:10:21Z",
      "_links" : {
        "self" : {
          "href" : "http://npo-gatekeeper-acc.cdn1.usvc.nepworldwide.nl/api/workflows/ddec24b7-e5b7-487a-92db-d9500e35d26f"
        }
      }
    }, {
      "workflowId" : "fd20af0b-82da-40fb-8f95-4d4112131195",
      "status" : "FAILED",
      "statusMessage" : "Packaging failed.",
      "workflowType" : "npo_webonly_drm",
      "customerMetadata" : {
        "mid" : "POW_03427594"
      },
      "startTime" : "2018-02-08T12:09:35Z",
      "updateTime" : "2018-02-08T12:10:06Z",
      "endTime" : "2018-02-08T12:10:06Z",
      "_links" : {
        "self" : {
          "href" : "http://npo-gatekeeper-acc.cdn1.usvc.nepworldwide.nl/api/workflows/fd20af0b-82da-40fb-8f95-4d4112131195"
        }
      }
    }, {
      "workflowId" : "4d157eda-5b14-4446-a83f-e1930da66910",
      "status" : "FAILED",
      "statusMessage" : "Packaging failed.",
      "workflowType" : "npo_webonly_drm",
      "customerMetadata" : {
        "mid" : "POW_03427594"
      },
      "startTime" : "2018-02-08T12:09:27Z",
      "updateTime" : "2018-02-08T12:09:49Z",
      "endTime" : "2018-02-08T12:09:49Z",
      "_links" : {
        "self" : {
          "href" : "http://npo-gatekeeper-acc.cdn1.usvc.nepworldwide.nl/api/workflows/4d157eda-5b14-4446-a83f-e1930da66910"
        }
      }
    }, {
      "workflowId" : "01680e99-134d-43ee-af29-c514e6fc1f66",
      "status" : "FAILED",
      "statusMessage" : "Packaging failed.",
      "workflowType" : "npo_webonly_drm",
      "customerMetadata" : {
        "mid" : "POW_03427594"
      },
      "startTime" : "2018-02-08T12:09:14Z",
      "updateTime" : "2018-02-08T12:09:46Z",
      "endTime" : "2018-02-08T12:09:46Z",
      "_links" : {
        "self" : {
          "href" : "http://npo-gatekeeper-acc.cdn1.usvc.nepworldwide.nl/api/workflows/01680e99-134d-43ee-af29-c514e6fc1f66"
        }
      }
    }, {
      "workflowId" : "431f9738-672d-4997-8a07-91acd4ca7c34",
      "status" : "COMPLETED",
      "statusMessage" : "Move to content storage failed.",
      "workflowType" : "npo_webonly_drm",
      "customerMetadata" : {
        "mid" : "VPWON_1289591"
      },
      "startTime" : "2018-02-07T13:47:30Z",
      "updateTime" : "2018-02-07T14:52:02Z",
      "endTime" : "2018-02-07T14:52:02Z",
      "_links" : {
        "self" : {
          "href" : "http://npo-gatekeeper-acc.cdn1.usvc.nepworldwide.nl/api/workflows/431f9738-672d-4997-8a07-91acd4ca7c34"
        }
      }
    } ]
  },
  "totalResults" : 26,
  "_links" : {
    "self" : {
      "href" : "http://npo-gatekeeper-acc.cdn1.usvc.nepworldwide.nl/api/workflows"
    },
    "next" : {
      "href" : "http://npo-gatekeeper-acc.cdn1.usvc.nepworldwide.nl/api/workflows?page=1&size=20"
    }
  }
}
